…
``` r
station_tibble <- readxl::read_xls("Station_Names.xls") %>%
  rename(
    station_code = `Two-Letter Station Code`,
    station_name = `Station Name`
  )

station_tibble
```

    # A tibble: 50 × 2
       station_code station_name                     
       <chr>        <chr>                            
     1 RM           Richmond                         
     2 EN           El Cerrito Del Norte             
     3 EP           El Cerrito Plaza                 
     4 NB           North Berkeley                   
     5 BK           Berkeley                         
     6 AS           Ashby                            
     7 MA           MacArthur                        
     8 19           19th Street Oakland              
     9 12           12th Street / Oakland City Center
    10 LM           Lake Merritt                     
    # … with 40 more rows
…
